{
  "id": "navigation",
  "label": "Navigation",
  "repeatable": false,
  "status": true,
  "json": {
    "Main": {
      "main": {
        "type": "Group",
        "config": {
          "label": "Links",
          "fields": {
            "title": {
              "type": "Text",
              "config": {
                "label": "Title",
                "placeholder": ""
              }
            },
            "link": {
              "type": "Link",
              "config": {
                "label": "Link",
                "placeholder": "Link for navigation item",
                "select": null
              }
            }
          }
        }
      }
    },
    "Footer": {
      "footer": {
        "type": "Group",
        "config": {
          "label": "Links",
          "fields": {
            "title": {
              "type": "Text",
              "config": {
                "label": "Title",
                "placeholder": ""
              }
            },
            "link": {
              "type": "Link",
              "config": {
                "label": "Link",
                "placeholder": "Link for navigation item",
                "select": null
              }
            }
          }
        }
      }
    }
  }
}